solid solidname
 facet normal 0 0 1
  outer loop
    vertex -33.3569 21.1943 2.54
    vertex -14.3072 21.2983 2.54
    vertex -33.4609 40.244 2.54
  endloop
 endfacet
 facet normal 0 0 1
  outer loop
    vertex -33.4609 40.244 2.54
    vertex -14.3072 21.2983 2.54
    vertex -14.4112 40.348 2.54
  endloop
 endfacet
 facet normal 0.999985 0.00545915 0
  outer loop
    vertex -11.8851 42.9018 2.54
    vertex -11.7533 18.7722 2.54
    vertex -11.8851 42.9018 1.90735e-006
  endloop
 endfacet
 facet normal 0.999985 0.00545915 0
  outer loop
    vertex -11.8851 42.9018 1.90735e-006
    vertex -11.7533 18.7722 2.54
    vertex -11.7533 18.7722 1.90735e-006
  endloop
 endfacet
 facet normal -0.00545914 0.999985 0
  outer loop
    vertex -36.0147 42.7701 2.54
    vertex -11.8851 42.9018 2.54
    vertex -36.0147 42.7701 1.90735e-006
  endloop
 endfacet
 facet normal -0.00545914 0.999985 0
  outer loop
    vertex -36.0147 42.7701 1.90735e-006
    vertex -11.8851 42.9018 2.54
    vertex -11.8851 42.9018 1.90735e-006
  endloop
 endfacet
 facet normal -0.999985 -0.00545915 0
  outer loop
    vertex -35.883 18.6405 2.54
    vertex -36.0147 42.7701 2.54
    vertex -35.883 18.6405 1.90735e-006
  endloop
 endfacet
 facet normal -0.999985 -0.00545915 -0
  outer loop
    vertex -35.883 18.6405 1.90735e-006
    vertex -36.0147 42.7701 2.54
    vertex -36.0147 42.7701 1.90735e-006
  endloop
 endfacet
 facet normal 0.00545914 -0.999985 0
  outer loop
    vertex -11.7533 18.7722 2.54
    vertex -35.883 18.6405 2.54
    vertex -11.7533 18.7722 1.90735e-006
  endloop
 endfacet
 facet normal 0.00545914 -0.999985 0
  outer loop
    vertex -11.7533 18.7722 1.90735e-006
    vertex -35.883 18.6405 2.54
    vertex -35.883 18.6405 1.90735e-006
  endloop
 endfacet
 facet normal 0 0 -1
  outer loop
    vertex -11.7533 18.7722 1.90735e-006
    vertex -35.883 18.6405 1.90735e-006
    vertex -11.8851 42.9018 1.90735e-006
  endloop
 endfacet
 facet normal 0 0 -1
  outer loop
    vertex -11.8851 42.9018 1.90735e-006
    vertex -35.883 18.6405 1.90735e-006
    vertex -36.0147 42.7701 1.90735e-006
  endloop
 endfacet
 facet normal 0 0 1
  outer loop
    vertex -33.1974 -8.01525 2.54
    vertex -14.1477 -7.91125 2.54
    vertex -33.3014 11.0345 2.54
  endloop
 endfacet
 facet normal 0 0 1
  outer loop
    vertex -33.3014 11.0345 2.54
    vertex -14.1477 -7.91125 2.54
    vertex -14.2517 11.1385 2.54
  endloop
 endfacet
 facet normal 0.999985 0.00545914 0
  outer loop
    vertex -11.7256 13.6923 2.54
    vertex -11.5939 -10.4373 2.54
    vertex -11.7256 13.6923 1.90735e-006
  endloop
 endfacet
 facet normal 0.999985 0.00545914 0
  outer loop
    vertex -11.7256 13.6923 1.90735e-006
    vertex -11.5939 -10.4373 2.54
    vertex -11.5939 -10.4373 1.90735e-006
  endloop
 endfacet
 facet normal -0.00545914 0.999985 0
  outer loop
    vertex -35.8553 13.5606 2.54
    vertex -11.7256 13.6923 2.54
    vertex -35.8553 13.5606 1.90735e-006
  endloop
 endfacet
 facet normal -0.00545914 0.999985 0
  outer loop
    vertex -35.8553 13.5606 1.90735e-006
    vertex -11.7256 13.6923 2.54
    vertex -11.7256 13.6923 1.90735e-006
  endloop
 endfacet
 facet normal -0.999985 -0.00545914 0
  outer loop
    vertex -35.7235 -10.5691 2.54
    vertex -35.8553 13.5606 2.54
    vertex -35.7235 -10.5691 1.90735e-006
  endloop
 endfacet
 facet normal -0.999985 -0.00545914 -0
  outer loop
    vertex -35.7235 -10.5691 1.90735e-006
    vertex -35.8553 13.5606 2.54
    vertex -35.8553 13.5606 1.90735e-006
  endloop
 endfacet
 facet normal 0.00545914 -0.999985 0
  outer loop
    vertex -11.5939 -10.4373 2.54
    vertex -35.7235 -10.5691 2.54
    vertex -11.5939 -10.4373 1.90735e-006
  endloop
 endfacet
 facet normal 0.00545914 -0.999985 0
  outer loop
    vertex -11.5939 -10.4373 1.90735e-006
    vertex -35.7235 -10.5691 2.54
    vertex -35.7235 -10.5691 1.90735e-006
  endloop
 endfacet
 facet normal 0 0 -1
  outer loop
    vertex -11.5939 -10.4373 1.90735e-006
    vertex -35.7235 -10.5691 1.90735e-006
    vertex -11.7256 13.6923 1.90735e-006
  endloop
 endfacet
 facet normal 0 0 -1
  outer loop
    vertex -11.7256 13.6923 1.90735e-006
    vertex -35.7235 -10.5691 1.90735e-006
    vertex -35.8553 13.5606 1.90735e-006
  endloop
 endfacet
 facet normal 0 0 1
  outer loop
    vertex -33.038 -37.2248 2.54
    vertex -13.9882 -37.1208 2.54
    vertex -33.142 -18.1751 2.54
  endloop
 endfacet
 facet normal 0 0 1
  outer loop
    vertex -33.142 -18.1751 2.54
    vertex -13.9882 -37.1208 2.54
    vertex -14.0922 -18.0711 2.54
  endloop
 endfacet
 facet normal 0.999985 0.00545915 0
  outer loop
    vertex -11.5661 -15.5173 2.54
    vertex -11.4344 -39.6469 2.54
    vertex -11.5661 -15.5173 1.90735e-006
  endloop
 endfacet
 facet normal 0.999985 0.00545915 0
  outer loop
    vertex -11.5661 -15.5173 1.90735e-006
    vertex -11.4344 -39.6469 2.54
    vertex -11.4344 -39.6469 1.90735e-006
  endloop
 endfacet
 facet normal -0.00545914 0.999985 0
  outer loop
    vertex -35.6958 -15.649 2.54
    vertex -11.5661 -15.5173 2.54
    vertex -35.6958 -15.649 1.90735e-006
  endloop
 endfacet
 facet normal -0.00545914 0.999985 0
  outer loop
    vertex -35.6958 -15.649 1.90735e-006
    vertex -11.5661 -15.5173 2.54
    vertex -11.5661 -15.5173 1.90735e-006
  endloop
 endfacet
 facet normal -0.999985 -0.00545915 0
  outer loop
    vertex -35.5641 -39.7786 2.54
    vertex -35.6958 -15.649 2.54
    vertex -35.5641 -39.7786 1.90735e-006
  endloop
 endfacet
 facet normal -0.999985 -0.00545915 -0
  outer loop
    vertex -35.5641 -39.7786 1.90735e-006
    vertex -35.6958 -15.649 2.54
    vertex -35.6958 -15.649 1.90735e-006
  endloop
 endfacet
 facet normal 0.00545914 -0.999985 0
  outer loop
    vertex -11.4344 -39.6469 2.54
    vertex -35.5641 -39.7786 2.54
    vertex -11.4344 -39.6469 1.90735e-006
  endloop
 endfacet
 facet normal 0.00545914 -0.999985 0
  outer loop
    vertex -11.4344 -39.6469 1.90735e-006
    vertex -35.5641 -39.7786 2.54
    vertex -35.5641 -39.7786 1.90735e-006
  endloop
 endfacet
 facet normal 0 0 -1
  outer loop
    vertex -11.4344 -39.6469 1.90735e-006
    vertex -35.5641 -39.7786 1.90735e-006
    vertex -11.5661 -15.5173 1.90735e-006
  endloop
 endfacet
 facet normal 0 0 -1
  outer loop
    vertex -11.5661 -15.5173 1.90735e-006
    vertex -35.5641 -39.7786 1.90735e-006
    vertex -35.6958 -15.649 1.90735e-006
  endloop
 endfacet
 facet normal 0 0 1
  outer loop
    vertex -4.14732 21.3538 2.54
    vertex 14.9024 21.4578 2.54
    vertex -4.25132 40.4035 2.54
  endloop
 endfacet
 facet normal 0 0 1
  outer loop
    vertex -4.25132 40.4035 2.54
    vertex 14.9024 21.4578 2.54
    vertex 14.7984 40.5075 2.54
  endloop
 endfacet
 facet normal 0.999985 0.00545915 0
  outer loop
    vertex 17.3245 43.0613 2.54
    vertex 17.4562 18.9317 2.54
    vertex 17.3245 43.0613 1.90735e-006
  endloop
 endfacet
 facet normal 0.999985 0.00545915 0
  outer loop
    vertex 17.3245 43.0613 1.90735e-006
    vertex 17.4562 18.9317 2.54
    vertex 17.4562 18.9317 1.90735e-006
  endloop
 endfacet
 facet normal -0.00545914 0.999985 0
  outer loop
    vertex -6.80515 42.9296 2.54
    vertex 17.3245 43.0613 2.54
    vertex -6.80515 42.9296 1.90735e-006
  endloop
 endfacet
 facet normal -0.00545914 0.999985 0
  outer loop
    vertex -6.80515 42.9296 1.90735e-006
    vertex 17.3245 43.0613 2.54
    vertex 17.3245 43.0613 1.90735e-006
  endloop
 endfacet
 facet normal -0.999985 -0.00545915 0
  outer loop
    vertex -6.67342 18.7999 2.54
    vertex -6.80515 42.9296 2.54
    vertex -6.67342 18.7999 1.90735e-006
  endloop
 endfacet
 facet normal -0.999985 -0.00545915 -0
  outer loop
    vertex -6.67342 18.7999 1.90735e-006
    vertex -6.80515 42.9296 2.54
    vertex -6.80515 42.9296 1.90735e-006
  endloop
 endfacet
 facet normal 0.00545914 -0.999985 0
  outer loop
    vertex 17.4562 18.9317 2.54
    vertex -6.67342 18.7999 2.54
    vertex 17.4562 18.9317 1.90735e-006
  endloop
 endfacet
 facet normal 0.00545914 -0.999985 0
  outer loop
    vertex 17.4562 18.9317 1.90735e-006
    vertex -6.67342 18.7999 2.54
    vertex -6.67342 18.7999 1.90735e-006
  endloop
 endfacet
 facet normal 0 0 -1
  outer loop
    vertex 17.4562 18.9317 1.90735e-006
    vertex -6.67342 18.7999 1.90735e-006
    vertex 17.3245 43.0613 1.90735e-006
  endloop
 endfacet
 facet normal 0 0 -1
  outer loop
    vertex 17.3245 43.0613 1.90735e-006
    vertex -6.67342 18.7999 1.90735e-006
    vertex -6.80515 42.9296 1.90735e-006
  endloop
 endfacet
 facet normal 0 0 1
  outer loop
    vertex -3.98786 -7.85579 2.54
    vertex 15.0619 -7.75179 2.54
    vertex -4.09186 11.1939 2.54
  endloop
 endfacet
 facet normal 0 0 1
  outer loop
    vertex -4.09186 11.1939 2.54
    vertex 15.0619 -7.75179 2.54
    vertex 14.9579 11.2979 2.54
  endloop
 endfacet
 facet normal 0.999985 0.00545914 0
  outer loop
    vertex 17.484 13.8517 2.54
    vertex 17.6157 -10.2779 2.54
    vertex 17.484 13.8517 1.90735e-006
  endloop
 endfacet
 facet normal 0.999985 0.00545914 0
  outer loop
    vertex 17.484 13.8517 1.90735e-006
    vertex 17.6157 -10.2779 2.54
    vertex 17.6157 -10.2779 1.90735e-006
  endloop
 endfacet
 facet normal -0.00545914 0.999985 0
  outer loop
    vertex -6.64568 13.72 2.54
    vertex 17.484 13.8517 2.54
    vertex -6.64568 13.72 1.90735e-006
  endloop
 endfacet
 facet normal -0.00545914 0.999985 0
  outer loop
    vertex -6.64568 13.72 1.90735e-006
    vertex 17.484 13.8517 2.54
    vertex 17.484 13.8517 1.90735e-006
  endloop
 endfacet
 facet normal -0.999985 -0.00545914 0
  outer loop
    vertex -6.51395 -10.4096 2.54
    vertex -6.64568 13.72 2.54
    vertex -6.51395 -10.4096 1.90735e-006
  endloop
 endfacet
 facet normal -0.999985 -0.00545914 -0
  outer loop
    vertex -6.51395 -10.4096 1.90735e-006
    vertex -6.64568 13.72 2.54
    vertex -6.64568 13.72 1.90735e-006
  endloop
 endfacet
 facet normal 0.00545914 -0.999985 0
  outer loop
    vertex 17.6157 -10.2779 2.54
    vertex -6.51395 -10.4096 2.54
    vertex 17.6157 -10.2779 1.90735e-006
  endloop
 endfacet
 facet normal 0.00545914 -0.999985 0
  outer loop
    vertex 17.6157 -10.2779 1.90735e-006
    vertex -6.51395 -10.4096 2.54
    vertex -6.51395 -10.4096 1.90735e-006
  endloop
 endfacet
 facet normal 0 0 -1
  outer loop
    vertex 17.6157 -10.2779 1.90735e-006
    vertex -6.51395 -10.4096 1.90735e-006
    vertex 17.484 13.8517 1.90735e-006
  endloop
 endfacet
 facet normal 0 0 -1
  outer loop
    vertex 17.484 13.8517 1.90735e-006
    vertex -6.51395 -10.4096 1.90735e-006
    vertex -6.64568 13.72 1.90735e-006
  endloop
 endfacet
 facet normal -0.00541707 0.992263 0.124035
  outer loop
    vertex -11.1149 18.1407 27.94
    vertex -14.3072 21.2983 2.54
    vertex -36.5145 18.002 27.94
  endloop
 endfacet
 facet normal -0.00541697 0.992263 0.124035
  outer loop
    vertex -36.5145 18.002 27.94
    vertex -14.3072 21.2983 2.54
    vertex -33.3569 21.1943 2.54
  endloop
 endfacet
 facet normal 0.992263 0.00541707 0.124035
  outer loop
    vertex -36.5145 18.002 27.94
    vertex -33.3569 21.1943 2.54
    vertex -36.6532 43.4016 27.94
  endloop
 endfacet
 facet normal 0.992263 0.00541697 0.124035
  outer loop
    vertex -36.6532 43.4016 27.94
    vertex -33.3569 21.1943 2.54
    vertex -33.4609 40.244 2.54
  endloop
 endfacet
 facet normal 0.00541677 -0.992263 0.124035
  outer loop
    vertex -11.2535 43.5403 27.94
    vertex -36.6532 43.4016 27.94
    vertex -14.4112 40.348 2.54
  endloop
 endfacet
 facet normal 0.00541737 -0.992263 0.124035
  outer loop
    vertex -14.4112 40.348 2.54
    vertex -36.6532 43.4016 27.94
    vertex -33.4609 40.244 2.54
  endloop
 endfacet
 facet normal -0.992263 -0.00541707 0.124035
  outer loop
    vertex -11.1149 18.1407 27.94
    vertex -11.2535 43.5403 27.94
    vertex -14.3072 21.2983 2.54
  endloop
 endfacet
 facet normal -0.992263 -0.00541696 0.124035
  outer loop
    vertex -14.3072 21.2983 2.54
    vertex -11.2535 43.5403 27.94
    vertex -14.4112 40.348 2.54
  endloop
 endfacet
 facet normal -0.00541707 0.992263 0.124035
  outer loop
    vertex -10.9554 -11.0689 27.94
    vertex -14.1477 -7.91125 2.54
    vertex -36.355 -11.2075 27.94
  endloop
 endfacet
 facet normal -0.00541697 0.992263 0.124035
  outer loop
    vertex -36.355 -11.2075 27.94
    vertex -14.1477 -7.91125 2.54
    vertex -33.1974 -8.01525 2.54
  endloop
 endfacet
 facet normal 0.992263 0.00541707 0.124035
  outer loop
    vertex -36.355 -11.2075 27.94
    vertex -33.1974 -8.01525 2.54
    vertex -36.4937 14.1921 27.94
  endloop
 endfacet
 facet normal 0.992263 0.00541697 0.124035
  outer loop
    vertex -36.4937 14.1921 27.94
    vertex -33.1974 -8.01525 2.54
    vertex -33.3014 11.0345 2.54
  endloop
 endfacet
 facet normal 0.00541707 -0.992263 0.124035
  outer loop
    vertex -11.0941 14.3307 27.94
    vertex -36.4937 14.1921 27.94
    vertex -14.2517 11.1385 2.54
  endloop
 endfacet
 facet normal 0.00541696 -0.992263 0.124035
  outer loop
    vertex -14.2517 11.1385 2.54
    vertex -36.4937 14.1921 27.94
    vertex -33.3014 11.0345 2.54
  endloop
 endfacet
 facet normal -0.992263 -0.00541707 0.124035
  outer loop
    vertex -10.9554 -11.0689 27.94
    vertex -11.0941 14.3307 27.94
    vertex -14.1477 -7.91125 2.54
  endloop
 endfacet
 facet normal -0.992263 -0.00541696 0.124035
  outer loop
    vertex -14.1477 -7.91125 2.54
    vertex -11.0941 14.3307 27.94
    vertex -14.2517 11.1385 2.54
  endloop
 endfacet
 facet normal -0.00541707 0.992263 0.124035
  outer loop
    vertex -10.796 -40.2784 27.94
    vertex -13.9882 -37.1208 2.54
    vertex -36.1956 -40.4171 27.94
  endloop
 endfacet
 facet normal -0.00541697 0.992263 0.124035
  outer loop
    vertex -36.1956 -40.4171 27.94
    vertex -13.9882 -37.1208 2.54
    vertex -33.038 -37.2248 2.54
  endloop
 endfacet
 facet normal 0.992263 0.00541707 0.124035
  outer loop
    vertex -36.1956 -40.4171 27.94
    vertex -33.038 -37.2248 2.54
    vertex -36.3342 -15.0175 27.94
  endloop
 endfacet
 facet normal 0.992263 0.00541697 0.124035
  outer loop
    vertex -36.3342 -15.0175 27.94
    vertex -33.038 -37.2248 2.54
    vertex -33.142 -18.1751 2.54
  endloop
 endfacet
 facet normal 0.00541699 -0.992263 0.124035
  outer loop
    vertex -10.9346 -14.8788 27.94
    vertex -36.3342 -15.0175 27.94
    vertex -14.0922 -18.0711 2.54
  endloop
 endfacet
 facet normal 0.00541696 -0.992263 0.124035
  outer loop
    vertex -14.0922 -18.0711 2.54
    vertex -36.3342 -15.0175 27.94
    vertex -33.142 -18.1751 2.54
  endloop
 endfacet
 facet normal -0.992263 -0.00541707 0.124035
  outer loop
    vertex -10.796 -40.2784 27.94
    vertex -10.9346 -14.8788 27.94
    vertex -13.9882 -37.1208 2.54
  endloop
 endfacet
 facet normal -0.992263 -0.00541696 0.124035
  outer loop
    vertex -13.9882 -37.1208 2.54
    vertex -10.9346 -14.8788 27.94
    vertex -14.0922 -18.0711 2.54
  endloop
 endfacet
 facet normal -0.00541707 0.992263 0.124035
  outer loop
    vertex 18.0947 18.3001 27.94
    vertex 14.9024 21.4578 2.54
    vertex -7.30494 18.1615 27.94
  endloop
 endfacet
 facet normal -0.00541697 0.992263 0.124035
  outer loop
    vertex -7.30494 18.1615 27.94
    vertex 14.9024 21.4578 2.54
    vertex -4.14732 21.3538 2.54
  endloop
 endfacet
 facet normal 0.992263 0.00541699 0.124035
  outer loop
    vertex -7.30494 18.1615 27.94
    vertex -4.14732 21.3538 2.54
    vertex -7.4436 43.5611 27.94
  endloop
 endfacet
 facet normal 0.992263 0.00541702 0.124035
  outer loop
    vertex -7.4436 43.5611 27.94
    vertex -4.14732 21.3538 2.54
    vertex -4.25132 40.4035 2.54
  endloop
 endfacet
 facet normal 0.00541677 -0.992263 0.124035
  outer loop
    vertex 17.956 43.6998 27.94
    vertex -7.4436 43.5611 27.94
    vertex 14.7984 40.5075 2.54
  endloop
 endfacet
 facet normal 0.00541737 -0.992263 0.124035
  outer loop
    vertex 14.7984 40.5075 2.54
    vertex -7.4436 43.5611 27.94
    vertex -4.25132 40.4035 2.54
  endloop
 endfacet
 facet normal -0.992263 -0.00541699 0.124035
  outer loop
    vertex 18.0947 18.3001 27.94
    vertex 17.956 43.6998 27.94
    vertex 14.9024 21.4578 2.54
  endloop
 endfacet
 facet normal -0.992263 -0.00541701 0.124035
  outer loop
    vertex 14.9024 21.4578 2.54
    vertex 17.956 43.6998 27.94
    vertex 14.7984 40.5075 2.54
  endloop
 endfacet
 facet normal -0.00541707 0.992263 0.124035
  outer loop
    vertex 18.2541 -10.9094 27.94
    vertex 15.0619 -7.75179 2.54
    vertex -7.14548 -11.0481 27.94
  endloop
 endfacet
 facet normal -0.00541697 0.992263 0.124035
  outer loop
    vertex -7.14548 -11.0481 27.94
    vertex 15.0619 -7.75179 2.54
    vertex -3.98786 -7.85579 2.54
  endloop
 endfacet
 facet normal 0.992263 0.00541699 0.124035
  outer loop
    vertex -7.14548 -11.0481 27.94
    vertex -3.98786 -7.85579 2.54
    vertex -7.28414 14.3515 27.94
  endloop
 endfacet
 facet normal 0.992263 0.00541697 0.124035
  outer loop
    vertex -7.28414 14.3515 27.94
    vertex -3.98786 -7.85579 2.54
    vertex -4.09186 11.1939 2.54
  endloop
 endfacet
 facet normal 0.00541707 -0.992263 0.124035
  outer loop
    vertex 18.1155 14.4902 27.94
    vertex -7.28414 14.3515 27.94
    vertex 14.9579 11.2979 2.54
  endloop
 endfacet
 facet normal 0.00541696 -0.992263 0.124035
  outer loop
    vertex 14.9579 11.2979 2.54
    vertex -7.28414 14.3515 27.94
    vertex -4.09186 11.1939 2.54
  endloop
 endfacet
 facet normal -0.992263 -0.00541699 0.124035
  outer loop
    vertex 18.2541 -10.9094 27.94
    vertex 18.1155 14.4902 27.94
    vertex 15.0619 -7.75179 2.54
  endloop
 endfacet
 facet normal -0.992263 -0.00541696 0.124035
  outer loop
    vertex 15.0619 -7.75179 2.54
    vertex 18.1155 14.4902 27.94
    vertex 14.9579 11.2979 2.54
  endloop
 endfacet
 facet normal 0.005417 -0.992263 -0.124035
  outer loop
    vertex 20.1695 -12.804 22.86
    vertex -9.04005 -12.9634 22.86
    vertex 17.6157 -10.2779 2.54
  endloop
 endfacet
 facet normal 0.00541699 -0.992263 -0.124035
  outer loop
    vertex 17.6157 -10.2779 2.54
    vertex -9.04005 -12.9634 22.86
    vertex -6.51395 -10.4096 2.54
  endloop
 endfacet
 facet normal 0.992263 0.005417 -0.124035
  outer loop
    vertex -8.88059 -42.173 22.86
    vertex -11.4344 -39.6469 2.54
    vertex -9.04005 -12.9634 22.86
  endloop
 endfacet
 facet normal 0.992263 0.00541699 -0.124035
  outer loop
    vertex -9.04005 -12.9634 22.86
    vertex -11.4344 -39.6469 2.54
    vertex -11.5661 -15.5173 2.54
  endloop
 endfacet
 facet normal 0.992263 0.005417 -0.124035
  outer loop
    vertex -9.19951 16.2461 22.86
    vertex -11.7533 18.7722 2.54
    vertex -9.35897 45.4557 22.86
  endloop
 endfacet
 facet normal 0.992263 0.00541699 -0.124035
  outer loop
    vertex -9.35897 45.4557 22.86
    vertex -11.7533 18.7722 2.54
    vertex -11.8851 42.9018 2.54
  endloop
 endfacet
 facet normal 0.005417 -0.992263 -0.124035
  outer loop
    vertex -9.19951 16.2461 22.86
    vertex -38.4091 16.0866 22.86
    vertex -11.7533 18.7722 2.54
  endloop
 endfacet
 facet normal 0.00541699 -0.992263 -0.124035
  outer loop
    vertex -11.7533 18.7722 2.54
    vertex -38.4091 16.0866 22.86
    vertex -35.883 18.6405 2.54
  endloop
 endfacet
 facet normal -0.992263 -0.00541699 -0.124035
  outer loop
    vertex -35.8553 13.5606 2.54
    vertex -35.7235 -10.5691 2.54
    vertex -38.4091 16.0866 22.86
  endloop
 endfacet
 facet normal -0.992263 -0.005417 -0.124035
  outer loop
    vertex -38.4091 16.0866 22.86
    vertex -35.7235 -10.5691 2.54
    vertex -38.2496 -13.1229 22.86
  endloop
 endfacet
 facet normal -0.992263 -0.00541702 -0.124035
  outer loop
    vertex -39.207 45.9277 27.94
    vertex -38.2496 -13.1229 22.86
    vertex -38.7217 -42.9709 27.94
  endloop
 endfacet
 facet normal -0.992263 -0.005417 -0.124035
  outer loop
    vertex -39.207 45.9277 27.94
    vertex -38.4091 16.0866 22.86
    vertex -38.2496 -13.1229 22.86
  endloop
 endfacet
 facet normal -0.992263 -0.00541706 -0.124035
  outer loop
    vertex -39.207 45.9277 27.94
    vertex -36.0147 42.7701 2.54
    vertex -38.4091 16.0866 22.86
  endloop
 endfacet
 facet normal -0.992263 -0.00541699 -0.124035
  outer loop
    vertex -38.4091 16.0866 22.86
    vertex -36.0147 42.7701 2.54
    vertex -35.883 18.6405 2.54
  endloop
 endfacet
 facet normal -0.992263 -0.00541699 -0.124035
  outer loop
    vertex -35.6958 -15.649 2.54
    vertex -35.5641 -39.7786 2.54
    vertex -38.2496 -13.1229 22.86
  endloop
 endfacet
 facet normal -0.992263 -0.005417 -0.124035
  outer loop
    vertex -38.2496 -13.1229 22.86
    vertex -35.5641 -39.7786 2.54
    vertex -38.7217 -42.9709 27.94
  endloop
 endfacet
 facet normal -0.005417 0.992263 -0.124035
  outer loop
    vertex -9.19951 16.2461 22.86
    vertex -11.7256 13.6923 2.54
    vertex -38.4091 16.0866 22.86
  endloop
 endfacet
 facet normal -0.00541699 0.992263 -0.124035
  outer loop
    vertex -38.4091 16.0866 22.86
    vertex -11.7256 13.6923 2.54
    vertex -35.8553 13.5606 2.54
  endloop
 endfacet
 facet normal 0.992263 0.005417 -0.124035
  outer loop
    vertex -9.04005 -12.9634 22.86
    vertex -11.5939 -10.4373 2.54
    vertex -9.19951 16.2461 22.86
  endloop
 endfacet
 facet normal 0.992263 0.00541699 -0.124035
  outer loop
    vertex -9.19951 16.2461 22.86
    vertex -11.5939 -10.4373 2.54
    vertex -11.7256 13.6923 2.54
  endloop
 endfacet
 facet normal 0.005417 -0.992263 -0.124035
  outer loop
    vertex -9.04005 -12.9634 22.86
    vertex -38.2496 -13.1229 22.86
    vertex -11.5939 -10.4373 2.54
  endloop
 endfacet
 facet normal 0.00541699 -0.992263 -0.124035
  outer loop
    vertex -11.5939 -10.4373 2.54
    vertex -38.2496 -13.1229 22.86
    vertex -35.7235 -10.5691 2.54
  endloop
 endfacet
 facet normal -0.005417 0.992263 -0.124035
  outer loop
    vertex -9.04005 -12.9634 22.86
    vertex -11.5661 -15.5173 2.54
    vertex -38.2496 -13.1229 22.86
  endloop
 endfacet
 facet normal -0.00541699 0.992263 -0.124035
  outer loop
    vertex -38.2496 -13.1229 22.86
    vertex -11.5661 -15.5173 2.54
    vertex -35.6958 -15.649 2.54
  endloop
 endfacet
 facet normal -0.992263 -0.005417 -0.124035
  outer loop
    vertex -9.04005 -12.9634 22.86
    vertex -9.19951 16.2461 22.86
    vertex -6.51395 -10.4096 2.54
  endloop
 endfacet
 facet normal -0.992263 -0.00541699 -0.124035
  outer loop
    vertex -6.51395 -10.4096 2.54
    vertex -9.19951 16.2461 22.86
    vertex -6.64568 13.72 2.54
  endloop
 endfacet
 facet normal -0.992263 -0.005417 -0.124035
  outer loop
    vertex -9.19951 16.2461 22.86
    vertex -9.35897 45.4557 22.86
    vertex -6.67342 18.7999 2.54
  endloop
 endfacet
 facet normal -0.992263 -0.00541699 -0.124035
  outer loop
    vertex -6.67342 18.7999 2.54
    vertex -9.35897 45.4557 22.86
    vertex -6.80515 42.9296 2.54
  endloop
 endfacet
 facet normal 0.005417 -0.992263 -0.124035
  outer loop
    vertex 20.0101 16.4056 22.86
    vertex -9.19951 16.2461 22.86
    vertex 17.4562 18.9317 2.54
  endloop
 endfacet
 facet normal 0.00541699 -0.992263 -0.124035
  outer loop
    vertex 17.4562 18.9317 2.54
    vertex -9.19951 16.2461 22.86
    vertex -6.67342 18.7999 2.54
  endloop
 endfacet
 facet normal -0.00541679 0.992263 -0.124035
  outer loop
    vertex -36.0147 42.7701 2.54
    vertex -39.207 45.9277 27.94
    vertex -9.35897 45.4557 22.86
  endloop
 endfacet
 facet normal -0.00541699 0.992263 -0.124035
  outer loop
    vertex -11.8851 42.9018 2.54
    vertex -36.0147 42.7701 2.54
    vertex -9.35897 45.4557 22.86
  endloop
 endfacet
 facet normal -0.00541703 0.992263 -0.124036
  outer loop
    vertex -39.207 45.9277 27.94
    vertex 20.4821 46.2536 27.94
    vertex -9.35897 45.4557 22.86
  endloop
 endfacet
 facet normal -0.00541726 0.992263 -0.124035
  outer loop
    vertex -9.35897 45.4557 22.86
    vertex 20.4821 46.2536 27.94
    vertex 17.3245 43.0613 2.54
  endloop
 endfacet
 facet normal -0.00541699 0.992263 -0.124035
  outer loop
    vertex -6.80515 42.9296 2.54
    vertex -9.35897 45.4557 22.86
    vertex 17.3245 43.0613 2.54
  endloop
 endfacet
 facet normal -0.005417 0.992263 -0.124035
  outer loop
    vertex 20.0101 16.4056 22.86
    vertex 17.484 13.8517 2.54
    vertex -9.19951 16.2461 22.86
  endloop
 endfacet
 facet normal -0.00541699 0.992263 -0.124035
  outer loop
    vertex -9.19951 16.2461 22.86
    vertex 17.484 13.8517 2.54
    vertex -6.64568 13.72 2.54
  endloop
 endfacet
 facet normal 0.992263 0.00541702 -0.124035
  outer loop
    vertex 20.9674 -42.6451 27.94
    vertex 20.1695 -12.804 22.86
    vertex 20.4821 46.2536 27.94
  endloop
 endfacet
 facet normal 0.992263 0.00541703 -0.124035
  outer loop
    vertex 20.9674 -42.6451 27.94
    vertex 17.7751 -39.4874 2.54
    vertex 20.1695 -12.804 22.86
  endloop
 endfacet
 facet normal 0.992263 0.00541699 -0.124035
  outer loop
    vertex 20.1695 -12.804 22.86
    vertex 17.7751 -39.4874 2.54
    vertex 17.6434 -15.3578 2.54
  endloop
 endfacet
 facet normal 0.992263 0.005417 -0.124035
  outer loop
    vertex 20.4821 46.2536 27.94
    vertex 20.1695 -12.804 22.86
    vertex 20.0101 16.4056 22.86
  endloop
 endfacet
 facet normal 0.992263 0.00541699 -0.124035
  outer loop
    vertex 17.3245 43.0613 2.54
    vertex 20.0101 16.4056 22.86
    vertex 17.4562 18.9317 2.54
  endloop
 endfacet
 facet normal 0.992263 0.00541703 -0.124035
  outer loop
    vertex 17.3245 43.0613 2.54
    vertex 20.4821 46.2536 27.94
    vertex 20.0101 16.4056 22.86
  endloop
 endfacet
 facet normal 0.992263 0.00541699 -0.124035
  outer loop
    vertex 17.484 13.8517 2.54
    vertex 20.0101 16.4056 22.86
    vertex 17.6157 -10.2779 2.54
  endloop
 endfacet
 facet normal 0.992263 0.005417 -0.124035
  outer loop
    vertex 17.6157 -10.2779 2.54
    vertex 20.0101 16.4056 22.86
    vertex 20.1695 -12.804 22.86
  endloop
 endfacet
 facet normal 0 0 1
  outer loop
    vertex -36.5145 18.002 27.94
    vertex -11.0941 14.3307 27.94
    vertex -11.1149 18.1407 27.94
  endloop
 endfacet
 facet normal 0 -0 1
  outer loop
    vertex -36.5145 18.002 27.94
    vertex -36.4937 14.1921 27.94
    vertex -11.0941 14.3307 27.94
  endloop
 endfacet
 facet normal 0 0 1
  outer loop
    vertex -36.5145 18.002 27.94
    vertex -39.207 45.9277 27.94
    vertex -36.4937 14.1921 27.94
  endloop
 endfacet
 facet normal 0 0 1
  outer loop
    vertex -36.5145 18.002 27.94
    vertex -36.6532 43.4016 27.94
    vertex -39.207 45.9277 27.94
  endloop
 endfacet
 facet normal 0 -0 1
  outer loop
    vertex -39.207 45.9277 27.94
    vertex -36.6532 43.4016 27.94
    vertex -11.2535 43.5403 27.94
  endloop
 endfacet
 facet normal -0 0 1
  outer loop
    vertex -7.4436 43.5611 27.94
    vertex -11.2535 43.5403 27.94
    vertex -7.30494 18.1615 27.94
  endloop
 endfacet
 facet normal 0 0 1
  outer loop
    vertex -7.4436 43.5611 27.94
    vertex -39.207 45.9277 27.94
    vertex -11.2535 43.5403 27.94
  endloop
 endfacet
 facet normal 0 0 1
  outer loop
    vertex -7.4436 43.5611 27.94
    vertex 20.4821 46.2536 27.94
    vertex -39.207 45.9277 27.94
  endloop
 endfacet
 facet normal 0 -0 1
  outer loop
    vertex -7.4436 43.5611 27.94
    vertex 17.956 43.6998 27.94
    vertex 20.4821 46.2536 27.94
  endloop
 endfacet
 facet normal -0 0 1
  outer loop
    vertex 20.4821 46.2536 27.94
    vertex 17.956 43.6998 27.94
    vertex 18.0947 18.3001 27.94
  endloop
 endfacet
 facet normal 0 0 1
  outer loop
    vertex 18.1155 14.4902 27.94
    vertex 18.0947 18.3001 27.94
    vertex -7.30494 18.1615 27.94
  endloop
 endfacet
 facet normal 0 0 1
  outer loop
    vertex -7.28414 14.3515 27.94
    vertex -7.30494 18.1615 27.94
    vertex -11.1149 18.1407 27.94
  endloop
 endfacet
 facet normal 0 0 1
  outer loop
    vertex -11.0941 14.3307 27.94
    vertex -7.28414 14.3515 27.94
    vertex -11.1149 18.1407 27.94
  endloop
 endfacet
 facet normal 0 0 1
  outer loop
    vertex -11.0941 14.3307 27.94
    vertex -7.14548 -11.0481 27.94
    vertex -7.28414 14.3515 27.94
  endloop
 endfacet
 facet normal 0 -0 1
  outer loop
    vertex -11.0941 14.3307 27.94
    vertex -10.9554 -11.0689 27.94
    vertex -7.14548 -11.0481 27.94
  endloop
 endfacet
 facet normal -0 0 1
  outer loop
    vertex -7.14548 -11.0481 27.94
    vertex -10.9554 -11.0689 27.94
    vertex -7.12468 -14.858 27.94
  endloop
 endfacet
 facet normal 0 0 1
  outer loop
    vertex 18.2749 -14.7194 27.94
    vertex -7.14548 -11.0481 27.94
    vertex -7.12468 -14.858 27.94
  endloop
 endfacet
 facet normal 0 0 1
  outer loop
    vertex 18.2749 -14.7194 27.94
    vertex 18.2541 -10.9094 27.94
    vertex -7.14548 -11.0481 27.94
  endloop
 endfacet
 facet normal 0 0 1
  outer loop
    vertex 18.2749 -14.7194 27.94
    vertex 20.9674 -42.6451 27.94
    vertex 18.2541 -10.9094 27.94
  endloop
 endfacet
 facet normal -0 -0 1
  outer loop
    vertex 18.2749 -14.7194 27.94
    vertex 18.4136 -40.119 27.94
    vertex 20.9674 -42.6451 27.94
  endloop
 endfacet
 facet normal 0 0 1
  outer loop
    vertex 20.9674 -42.6451 27.94
    vertex 18.4136 -40.119 27.94
    vertex -6.98602 -40.2576 27.94
  endloop
 endfacet
 facet normal 0 0 1
  outer loop
    vertex -10.796 -40.2784 27.94
    vertex -6.98602 -40.2576 27.94
    vertex -10.9346 -14.8788 27.94
  endloop
 endfacet
 facet normal 0 0 1
  outer loop
    vertex -10.796 -40.2784 27.94
    vertex 20.9674 -42.6451 27.94
    vertex -6.98602 -40.2576 27.94
  endloop
 endfacet
 facet normal 0 0 1
  outer loop
    vertex -10.796 -40.2784 27.94
    vertex -38.7217 -42.9709 27.94
    vertex 20.9674 -42.6451 27.94
  endloop
 endfacet
 facet normal -0 0 1
  outer loop
    vertex -10.796 -40.2784 27.94
    vertex -36.1956 -40.4171 27.94
    vertex -38.7217 -42.9709 27.94
  endloop
 endfacet
 facet normal 0 0 1
  outer loop
    vertex -38.7217 -42.9709 27.94
    vertex -36.1956 -40.4171 27.94
    vertex -36.3342 -15.0175 27.94
  endloop
 endfacet
 facet normal 0 -0 1
  outer loop
    vertex -36.355 -11.2075 27.94
    vertex -36.3342 -15.0175 27.94
    vertex -10.9346 -14.8788 27.94
  endloop
 endfacet
 facet normal 0 -0 1
  outer loop
    vertex -10.9554 -11.0689 27.94
    vertex -10.9346 -14.8788 27.94
    vertex -7.12468 -14.858 27.94
  endloop
 endfacet
 facet normal -0 0 1
  outer loop
    vertex -10.9554 -11.0689 27.94
    vertex -36.355 -11.2075 27.94
    vertex -10.9346 -14.8788 27.94
  endloop
 endfacet
 facet normal 0 -0 1
  outer loop
    vertex -11.2535 43.5403 27.94
    vertex -11.1149 18.1407 27.94
    vertex -7.30494 18.1615 27.94
  endloop
 endfacet
 facet normal 0 0 1
  outer loop
    vertex -36.4937 14.1921 27.94
    vertex -39.207 45.9277 27.94
    vertex -36.355 -11.2075 27.94
  endloop
 endfacet
 facet normal 0 0 1
  outer loop
    vertex -36.355 -11.2075 27.94
    vertex -39.207 45.9277 27.94
    vertex -38.7217 -42.9709 27.94
  endloop
 endfacet
 facet normal 0 0 1
  outer loop
    vertex -36.3342 -15.0175 27.94
    vertex -36.355 -11.2075 27.94
    vertex -38.7217 -42.9709 27.94
  endloop
 endfacet
 facet normal -0 0 1
  outer loop
    vertex -7.12468 -14.858 27.94
    vertex -10.9346 -14.8788 27.94
    vertex -6.98602 -40.2576 27.94
  endloop
 endfacet
 facet normal -0 0 1
  outer loop
    vertex 20.4821 46.2536 27.94
    vertex 18.0947 18.3001 27.94
    vertex 18.1155 14.4902 27.94
  endloop
 endfacet
 facet normal 0 0 1
  outer loop
    vertex 18.2541 -10.9094 27.94
    vertex 20.4821 46.2536 27.94
    vertex 18.1155 14.4902 27.94
  endloop
 endfacet
 facet normal 0 0 1
  outer loop
    vertex 18.2541 -10.9094 27.94
    vertex 20.9674 -42.6451 27.94
    vertex 20.4821 46.2536 27.94
  endloop
 endfacet
 facet normal 0 0 1
  outer loop
    vertex -7.28414 14.3515 27.94
    vertex 18.1155 14.4902 27.94
    vertex -7.30494 18.1615 27.94
  endloop
 endfacet
 facet normal 0 0 1
  outer loop
    vertex -3.8284 -37.0653 2.54
    vertex 15.2213 -36.9613 2.54
    vertex -3.93239 -18.0156 2.54
  endloop
 endfacet
 facet normal 0 0 1
  outer loop
    vertex -3.93239 -18.0156 2.54
    vertex 15.2213 -36.9613 2.54
    vertex 15.1173 -17.9116 2.54
  endloop
 endfacet
 facet normal 0.999985 0.00545915 0
  outer loop
    vertex 17.6434 -15.3578 2.54
    vertex 17.7751 -39.4874 2.54
    vertex 17.6434 -15.3578 1.90735e-006
  endloop
 endfacet
 facet normal 0.999985 0.00545915 0
  outer loop
    vertex 17.6434 -15.3578 1.90735e-006
    vertex 17.7751 -39.4874 2.54
    vertex 17.7751 -39.4874 1.90735e-006
  endloop
 endfacet
 facet normal -0.00545914 0.999985 0
  outer loop
    vertex -6.48622 -15.4895 2.54
    vertex 17.6434 -15.3578 2.54
    vertex -6.48622 -15.4895 1.90735e-006
  endloop
 endfacet
 facet normal -0.00545914 0.999985 0
  outer loop
    vertex -6.48622 -15.4895 1.90735e-006
    vertex 17.6434 -15.3578 2.54
    vertex 17.6434 -15.3578 1.90735e-006
  endloop
 endfacet
 facet normal -0.999985 -0.00545915 0
  outer loop
    vertex -6.35449 -39.6192 2.54
    vertex -6.48622 -15.4895 2.54
    vertex -6.35449 -39.6192 1.90735e-006
  endloop
 endfacet
 facet normal -0.999985 -0.00545915 -0
  outer loop
    vertex -6.35449 -39.6192 1.90735e-006
    vertex -6.48622 -15.4895 2.54
    vertex -6.48622 -15.4895 1.90735e-006
  endloop
 endfacet
 facet normal 0.00545914 -0.999985 0
  outer loop
    vertex 17.7751 -39.4874 2.54
    vertex -6.35449 -39.6192 2.54
    vertex 17.7751 -39.4874 1.90735e-006
  endloop
 endfacet
 facet normal 0.00545914 -0.999985 0
  outer loop
    vertex 17.7751 -39.4874 1.90735e-006
    vertex -6.35449 -39.6192 2.54
    vertex -6.35449 -39.6192 1.90735e-006
  endloop
 endfacet
 facet normal 0 0 -1
  outer loop
    vertex 17.7751 -39.4874 1.90735e-006
    vertex -6.35449 -39.6192 1.90735e-006
    vertex 17.6434 -15.3578 1.90735e-006
  endloop
 endfacet
 facet normal 0 0 -1
  outer loop
    vertex 17.6434 -15.3578 1.90735e-006
    vertex -6.35449 -39.6192 1.90735e-006
    vertex -6.48622 -15.4895 1.90735e-006
  endloop
 endfacet
 facet normal -0.00541707 0.992263 0.124035
  outer loop
    vertex 18.4136 -40.119 27.94
    vertex 15.2213 -36.9613 2.54
    vertex -6.98602 -40.2576 27.94
  endloop
 endfacet
 facet normal -0.00541697 0.992263 0.124035
  outer loop
    vertex -6.98602 -40.2576 27.94
    vertex 15.2213 -36.9613 2.54
    vertex -3.8284 -37.0653 2.54
  endloop
 endfacet
 facet normal 0.992263 0.00541699 0.124035
  outer loop
    vertex -6.98602 -40.2576 27.94
    vertex -3.8284 -37.0653 2.54
    vertex -7.12468 -14.858 27.94
  endloop
 endfacet
 facet normal 0.992263 0.00541697 0.124035
  outer loop
    vertex -7.12468 -14.858 27.94
    vertex -3.8284 -37.0653 2.54
    vertex -3.93239 -18.0156 2.54
  endloop
 endfacet
 facet normal 0.00541699 -0.992263 0.124035
  outer loop
    vertex 18.2749 -14.7194 27.94
    vertex -7.12468 -14.858 27.94
    vertex 15.1173 -17.9116 2.54
  endloop
 endfacet
 facet normal 0.00541696 -0.992263 0.124035
  outer loop
    vertex 15.1173 -17.9116 2.54
    vertex -7.12468 -14.858 27.94
    vertex -3.93239 -18.0156 2.54
  endloop
 endfacet
 facet normal -0.992263 -0.00541699 0.124035
  outer loop
    vertex 18.4136 -40.119 27.94
    vertex 18.2749 -14.7194 27.94
    vertex 15.2213 -36.9613 2.54
  endloop
 endfacet
 facet normal -0.992263 -0.00541696 0.124035
  outer loop
    vertex 15.2213 -36.9613 2.54
    vertex 18.2749 -14.7194 27.94
    vertex 15.1173 -17.9116 2.54
  endloop
 endfacet
 facet normal 0.00541699 -0.992263 -0.124035
  outer loop
    vertex -6.35449 -39.6192 2.54
    vertex 17.7751 -39.4874 2.54
    vertex -8.88059 -42.173 22.86
  endloop
 endfacet
 facet normal 0.0054169 -0.992263 -0.124035
  outer loop
    vertex -8.88059 -42.173 22.86
    vertex 17.7751 -39.4874 2.54
    vertex 20.9674 -42.6451 27.94
  endloop
 endfacet
 facet normal 0.00541697 -0.992263 -0.124035
  outer loop
    vertex -38.7217 -42.9709 27.94
    vertex -8.88059 -42.173 22.86
    vertex 20.9674 -42.6451 27.94
  endloop
 endfacet
 facet normal 0.00541706 -0.992263 -0.124035
  outer loop
    vertex -38.7217 -42.9709 27.94
    vertex -35.5641 -39.7786 2.54
    vertex -8.88059 -42.173 22.86
  endloop
 endfacet
 facet normal 0.00541699 -0.992263 -0.124035
  outer loop
    vertex -8.88059 -42.173 22.86
    vertex -35.5641 -39.7786 2.54
    vertex -11.4344 -39.6469 2.54
  endloop
 endfacet
 facet normal -0.992263 -0.005417 -0.124035
  outer loop
    vertex -8.88059 -42.173 22.86
    vertex -9.04005 -12.9634 22.86
    vertex -6.35449 -39.6192 2.54
  endloop
 endfacet
 facet normal -0.992263 -0.00541699 -0.124035
  outer loop
    vertex -6.35449 -39.6192 2.54
    vertex -9.04005 -12.9634 22.86
    vertex -6.48622 -15.4895 2.54
  endloop
 endfacet
 facet normal -0.005417 0.992263 -0.124035
  outer loop
    vertex 20.1695 -12.804 22.86
    vertex 17.6434 -15.3578 2.54
    vertex -9.04005 -12.9634 22.86
  endloop
 endfacet
 facet normal -0.00541699 0.992263 -0.124035
  outer loop
    vertex -9.04005 -12.9634 22.86
    vertex 17.6434 -15.3578 2.54
    vertex -6.48622 -15.4895 2.54
  endloop
 endfacet
endsolid solidname
